%YAML 1.1
%TAG !u! tag:unity3d.com,2011:
--- !u!114 &-3415353175061697190
MonoBehaviour:
  m_ObjectHideFlags: 11
  m_CorrespondingSourceObject: {fileID: 0}
  m_PrefabInstance: {fileID: 0}
  m_PrefabAsset: {fileID: 0}
  m_GameObject: {fileID: 0}
  m_Enabled: 1
  m_EditorHideFlags: 0
  m_Script: {fileID: 11500000, guid: da692e001514ec24dbc4cca1949ff7e8, type: 3}
  m_Name: 
  m_EditorClassIdentifier: 
  version: 2
--- !u!114 &-2459537056405758879
MonoBehaviour:
  m_ObjectHideFlags: 11
  m_CorrespondingSourceObject: {fileID: 0}
  m_PrefabInstance: {fileID: 0}
  m_PrefabAsset: {fileID: 0}
  m_GameObject: {fileID: 0}
  m_Enabled: 1
  m_EditorHideFlags: 0
  m_Script: {fileID: 11500000, guid: d0353a89b1f911e48b9e16bdc9f2e058, type: 3}
  m_Name: 
  m_EditorClassIdentifier: 
  version: 4
--- !u!21 &2100000
Material:
  serializedVersion: 6
  m_ObjectHideFlags: 0
  m_CorrespondingSourceObject: {fileID: 0}
  m_PrefabInstance: {fileID: 0}
  m_PrefabAsset: {fileID: 0}
  m_Name: Bahiagrass1_LOD2
  m_Shader: {fileID: 4800000, guid: ee7e4c9a5f6364b688a332c67fc32cca, type: 3}
  m_ShaderKeywords: _SPECULAR_SETUP
  m_LightmapFlags: 4
  m_EnableInstancingVariants: 0
  m_DoubleSidedGI: 0
  m_CustomRenderQueue: 3000
  stringTagMap:
    MotionVector: User
    RenderType: Transparent
  disabledShaderPasses:
  - DistortionVectors
  - MOTIONVECTORS
  - TransparentDepthPrepass
  - TransparentDepthPostpass
  - TransparentBackface
  - SHADOWCASTER
  m_SavedProperties:
    serializedVersion: 3
    m_TexEnvs:
    - Texture2D_7B77FCE7:
        m_Texture: {fileID: 0}
        m_Scale: {x: 1, y: 1}
        m_Offset: {x: 0, y: 0}
    - Texture2D_85643C7C:
        m_Texture: {fileID: 2800000, guid: cbc715ddf9a058d4a830bdddb7b3b898, type: 3}
        m_Scale: {x: 1, y: 1}
        m_Offset: {x: 0, y: 0}
    - Texture2D_93771649:
        m_Texture: {fileID: 2800000, guid: 0be41d2567d2ee948a83e76bb68397f2, type: 3}
        m_Scale: {x: 1, y: 1}
        m_Offset: {x: 0, y: 0}
    - Texture2D_B5ED0528:
        m_Texture: {fileID: 2800000, guid: cbc715ddf9a058d4a830bdddb7b3b898, type: 3}
        m_Scale: {x: 1, y: 1}
        m_Offset: {x: 0, y: 0}
    - _AnisotropyMap:
        m_Texture: {fileID: 0}
        m_Scale: {x: 1, y: 1}
        m_Offset: {x: 0, y: 0}
    - _BaseColorMap:
        m_Texture: {fileID: 2800000, guid: cbc715ddf9a058d4a830bdddb7b3b898, type: 3}
        m_Scale: {x: 1, y: 1}
        m_Offset: {x: 0, y: 0}
    - _BaseMap:
        m_Texture: {fileID: 0}
        m_Scale: {x: 1, y: 1}
        m_Offset: {x: 0, y: 0}
    - _BentNormalMap:
        m_Texture: {fileID: 0}
        m_Scale: {x: 1, y: 1}
        m_Offset: {x: 0, y: 0}
    - _BentNormalMapOS:
        m_Texture: {fileID: 0}
        m_Scale: {x: 1, y: 1}
        m_Offset: {x: 0, y: 0}
    - _BumpMap:
        m_Texture: {fileID: 0}
        m_Scale: {x: 1, y: 1}
        m_Offset: {x: 0, y: 0}
    - _ClearCoatMap:
        m_Texture: {fileID: 0}
        m_Scale: {x: 1, y: 1}
        m_Offset: {x: 0, y: 0}
    - _CoatMaskMap:
        m_Texture: {fileID: 0}
        m_Scale: {x: 1, y: 1}
        m_Offset: {x: 0, y: 0}
    - _DetailAlbedoMap:
        m_Texture: {fileID: 0}
        m_Scale: {x: 1, y: 1}
        m_Offset: {x: 0, y: 0}
    - _DetailMap:
        m_Texture: {fileID: 0}
        m_Scale: {x: 1, y: 1}
        m_Offset: {x: 0, y: 0}
    - _DetailMask:
        m_Texture: {fileID: 0}
        m_Scale: {x: 1, y: 1}
        m_Offset: {x: 0, y: 0}
    - _DetailNormalMap:
        m_Texture: {fileID: 0}
        m_Scale: {x: 1, y: 1}
        m_Offset: {x: 0, y: 0}
    - _DistortionVectorMap:
        m_Texture: {fileID: 0}
        m_Scale: {x: 1, y: 1}
        m_Offset: {x: 0, y: 0}
    - _EmissionMap:
        m_Texture: {fileID: 0}
        m_Scale: {x: 1, y: 1}
        m_Offset: {x: 0, y: 0}
    - _EmissiveColorMap:
        m_Texture: {fileID: 0}
        m_Scale: {x: 1, y: 1}
        m_Offset: {x: 0, y: 0}
    - _HeightMap:
        m_Texture: {fileID: 0}
        m_Scale: {x: 1, y: 1}
        m_Offset: {x: 0, y: 0}
    - _IridescenceMaskMap:
        m_Texture: {fileID: 0}
        m_Scale: {x: 1, y: 1}
        m_Offset: {x: 0, y: 0}
    - _IridescenceThicknessMap:
        m_Texture: {fileID: 0}
        m_Scale: {x: 1, y: 1}
        m_Offset: {x: 0, y: 0}
    - _MainTex:
        m_Texture: {fileID: 2800000, guid: cbc715ddf9a058d4a830bdddb7b3b898, type: 3}
        m_Scale: {x: 1, y: 1}
        m_Offset: {x: 0, y: 0}
    - _MaskMap:
        m_Texture: {fileID: 0}
        m_Scale: {x: 1, y: 1}
        m_Offset: {x: 0, y: 0}
    - _MetallicGlossMap:
        m_Texture: {fileID: 0}
        m_Scale: {x: 1, y: 1}
        m_Offset: {x: 0, y: 0}
    - _NormalMap:
        m_Texture: {fileID: 0}
        m_Scale: {x: 1, y: 1}
        m_Offset: {x: 0, y: 0}
    - _NormalMapOS:
        m_Texture: {fileID: 0}
        m_Scale: {x: 1, y: 1}
        m_Offset: {x: 0, y: 0}
    - _OcclusionMap:
        m_Texture: {fileID: 0}
        m_Scale: {x: 1, y: 1}
        m_Offset: {x: 0, y: 0}
    - _ParallaxMap:
        m_Texture: {fileID: 0}
        m_Scale: {x: 1, y: 1}
        m_Offset: {x: 0, y: 0}
    - _SpecGlossMap:
        m_Texture: {fileID: 0}
        m_Scale: {x: 1, y: 1}
        m_Offset: {x: 0, y: 0}
    - _SpecularColorMap:
        m_Texture: {fileID: 0}
        m_Scale: {x: 1, y: 1}
        m_Offset: {x: 0, y: 0}
    - _SubsurfaceMaskMap:
        m_Texture: {fileID: 0}
        m_Scale: {x: 1, y: 1}
        m_Offset: {x: 0, y: 0}
    - _TangentMap:
        m_Texture: {fileID: 0}
        m_Scale: {x: 1, y: 1}
        m_Offset: {x: 0, y: 0}
    - _TangentMapOS:
        m_Texture: {fileID: 0}
        m_Scale: {x: 1, y: 1}
        m_Offset: {x: 0, y: 0}
    - _ThicknessMap:
        m_Texture: {fileID: 0}
        m_Scale: {x: 1, y: 1}
        m_Offset: {x: 0, y: 0}
    - _TransmittanceColorMap:
        m_Texture: {fileID: 0}
        m_Scale: {x: 1, y: 1}
        m_Offset: {x: 0, y: 0}
    - unity_Lightmaps:
        m_Texture: {fileID: 0}
        m_Scale: {x: 1, y: 1}
        m_Offset: {x: 0, y: 0}
    - unity_LightmapsInd:
        m_Texture: {fileID: 0}
        m_Scale: {x: 1, y: 1}
        m_Offset: {x: 0, y: 0}
    - unity_ShadowMasks:
        m_Texture: {fileID: 0}
        m_Scale: {x: 1, y: 1}
        m_Offset: {x: 0, y: 0}
    m_Ints: []
    m_Floats:
    - Boolean_E9975575: 0
    - Vector1_12FF4137: 0.06
    - Vector1_30CCBBE7: 1
    - Vector1_36764274: 0
    - Vector1_3DD1ECF1: 0
    - Vector1_AE2E876E: 0.3
    - Vector1_BA8B6BF7: 1
    - Vector1_D7D93361: 0.05
    - Vector1_FC3CF764: 1
    - Vector1_FFA3773: 0.3
    - _AORemapMax: 1
    - _AORemapMin: 0
    - _ATDistance: 1
    - _AddPrecomputedVelocity: 0
    - _AlbedoAffectEmissive: 0
    - _AlphaClip: 0
    - _AlphaCutoff: 0.5
    - _AlphaCutoffEnable: 0
    - _AlphaCutoffPostpass: 0.5
    - _AlphaCutoffPrepass: 0.5
    - _AlphaCutoffShadow: 0.5
    - _AlphaDstBlend: 0
    - _AlphaSrcBlend: 1
    - _Anisotropy: 0
    - _Blend: 0
    - _BlendMode: 0
    - _BumpScale: 1
    - _ClearCoat: 0
    - _ClearCoatMask: 0
    - _ClearCoatSmoothness: 1
    - _CoatMask: 0
    - _Cull: 0
    - _CullMode: 2
    - _CullModeForward: 2
    - _Cutoff: 0.5
    - _DepthOffsetEnable: 0
    - _DetailAlbedoMapScale: 1
    - _DetailAlbedoScale: 1
    - _DetailNormalMapScale: 1
    - _DetailNormalScale: 1
    - _DetailSmoothnessScale: 1
    - _DiffusionProfile: 0
    - _DiffusionProfileHash: 0
    - _DisplacementLockObjectScale: 1
    - _DisplacementLockTilingScale: 1
    - _DisplacementMode: 0
    - _DistortionBlendMode: 0
    - _DistortionBlurBlendMode: 0
    - _DistortionBlurDstBlend: 1
    - _DistortionBlurRemapMax: 1
    - _DistortionBlurRemapMin: 0
    - _DistortionBlurScale: 1
    - _DistortionBlurSrcBlend: 1
    - _DistortionDepthTest: 1
    - _DistortionDstBlend: 1
    - _DistortionEnable: 0
    - _DistortionScale: 1
    - _DistortionSrcBlend: 1
    - _DistortionVectorBias: -1
    - _DistortionVectorScale: 2
    - _DoubleSidedEnable: 0
    - _DoubleSidedNormalMode: 1
    - _DstBlend: 10
    - _EmissiveColorMode: 1
    - _EmissiveExposureWeight: 1
    - _EmissiveIntensity: 1
    - _EmissiveIntensityUnit: 0
    - _EnableBlendModePreserveSpecularLighting: 1
    - _EnableFogOnTransparent: 1
    - _EnableGeometricSpecularAA: 0
    - _EnergyConservingSpecularColor: 1
    - _EnvironmentReflections: 1
    - _GlossMapScale: 1
    - _GlossinessSource: 0
    - _HeightAmplitude: 0.02
    - _HeightCenter: 0.5
    - _HeightMapParametrization: 0
    - _HeightMax: 1
    - _HeightMin: -1
    - _HeightOffset: 0
    - _HeightPoMAmplitude: 2
    - _HeightTessAmplitude: 2
    - _HeightTessCenter: 0.5
    - _InvTilingScale: 1
    - _Ior: 1.5
    - _IridescenceMask: 1
    - _IridescenceThickness: 1
    - _LinkDetailsWithBase: 1
    - _MaterialID: 1
    - _Metallic: 0
    - _NormalMapSpace: 0
    - _NormalScale: 1
    - _OcclusionStrength: 1
    - _PPDLodThreshold: 5
    - _PPDMaxSamples: 15
    - _PPDMinSamples: 5
    - _PPDPrimitiveLength: 1
    - _PPDPrimitiveWidth: 1
    - _Parallax: 0.005
    - _QueueOffset: 0
    - _ReceiveShadows: 1
    - _ReceivesSSR: 1
    - _RefractionModel: 0
    - _SSRefractionProjectionModel: 0
    - _Shininess: 0
    - _Smoothness: 0
    - _SmoothnessRemapMax: 1
    - _SmoothnessRemapMin: 0
    - _SmoothnessSource: 0
    - _SmoothnessTextureChannel: 0
    - _SpecSource: 0
    - _SpecularAAScreenSpaceVariance: 0.1
    - _SpecularAAThreshold: 0.2
    - _SpecularHighlights: 1
    - _SpecularOcclusionMode: 1
    - _SrcBlend: 5
    - _StencilRef: 0
    - _StencilRefDepth: 8
    - _StencilRefDistortionVec: 4
    - _StencilRefGBuffer: 10
    - _StencilRefMV: 40
    - _StencilWriteMask: 6
    - _StencilWriteMaskDepth: 8
    - _StencilWriteMaskDistortionVec: 4
    - _StencilWriteMaskGBuffer: 14
    - _StencilWriteMaskMV: 40
    - _SubsurfaceMask: 1
    - _SupportDecals: 1
    - _Surface: 1
    - _SurfaceType: 0
    - _TexWorldScale: 1
    - _TexWorldScaleEmissive: 1
    - _Thickness: 1
    - _TransmissionEnable: 1
    - _TransparentBackfaceEnable: 0
    - _TransparentCullMode: 2
    - _TransparentDepthPostpassEnable: 0
    - _TransparentDepthPrepassEnable: 0
    - _TransparentSortPriority: 0
    - _TransparentWritingMotionVec: 0
    - _TransparentZWrite: 0
    - _UVBase: 0
    - _UVDetail: 0
    - _UVEmissive: 0
    - _UseEmissiveIntensity: 0
    - _UseShadowThreshold: 0
    - _WorkflowMode: 0
    - _ZTestDepthEqualForOpaque: 3
    - _ZTestGBuffer: 4
    - _ZTestModeDistortion: 4
    - _ZTestTransparent: 4
    - _ZWrite: 0
    m_Colors:
    - Vector2_59644A16: {r: 2, g: 2, b: 0, a: 0}
    - _BaseColor: {r: 0.8, g: 0.8, b: 0.8, a: 1}
    - _BaseColorMap_MipInfo: {r: 0, g: 0, b: 0, a: 0}
    - _Color: {r: 0.8, g: 0.8, b: 0.8, a: 1}
    - _DiffusionProfileAsset: {r: 0, g: 0, b: 0, a: 0}
    - _DoubleSidedConstants: {r: 1, g: 1, b: -1, a: 0}
    - _EmissionColor: {r: 1, g: 1, b: 1, a: 1}
    - _EmissiveColor: {r: 0, g: 0, b: 0, a: 1}
    - _EmissiveColorLDR: {r: 0, g: 0, b: 0, a: 1}
    - _InvPrimScale: {r: 1, g: 1, b: 0, a: 0}
    - _IridescenceThicknessRemap: {r: 0, g: 1, b: 0, a: 0}
    - _SpecColor: {r: 0.5, g: 0.5, b: 0.5, a: 0.5}
    - _SpecularColor: {r: 1, g: 1, b: 1, a: 1}
    - _ThicknessRemap: {r: 0, g: 1, b: 0, a: 0}
    - _TransmittanceColor: {r: 1, g: 1, b: 1, a: 1}
    - _UVDetailsMappingMask: {r: 1, g: 0, b: 0, a: 0}
    - _UVMappingMask: {r: 1, g: 0, b: 0, a: 0}
    - _UVMappingMaskEmissive: {r: 1, g: 0, b: 0, a: 0}
  m_BuildTextureStacks: []
