%YAML 1.1
%TAG !u! tag:unity3d.com,2011:
--- !u!1 &6329282690147596262
GameObject:
  m_ObjectHideFlags: 0
  m_CorrespondingSourceObject: {fileID: 0}
  m_PrefabInstance: {fileID: 0}
  m_PrefabAsset: {fileID: 0}
  serializedVersion: 6
  m_Component:
  - component: {fileID: 8846302594922160976}
  - component: {fileID: 5137420586751540805}
  m_Layer: 0
  m_Name: GridMask
  m_TagString: Untagged
  m_Icon: {fileID: 0}
  m_NavMeshLayer: 0
  m_StaticEditorFlags: 0
  m_IsActive: 1
--- !u!4 &8846302594922160976
Transform:
  m_ObjectHideFlags: 0
  m_CorrespondingSourceObject: {fileID: 0}
  m_PrefabInstance: {fileID: 0}
  m_PrefabAsset: {fileID: 0}
  m_GameObject: {fileID: 6329282690147596262}
  m_LocalRotation: {x: 0, y: 0, z: 0, w: 1}
  m_LocalPosition: {x: 37.30981, y: 2.127236, z: 71.72228}
  m_LocalScale: {x: 1, y: 1, z: 1}
  m_Children: []
  m_Father: {fileID: 0}
  m_RootOrder: 0
  m_LocalEulerAnglesHint: {x: 0, y: 0, z: 0}
--- !u!114 &5137420586751540805
MonoBehaviour:
  m_ObjectHideFlags: 0
  m_CorrespondingSourceObject: {fileID: 0}
  m_PrefabInstance: {fileID: 0}
  m_PrefabAsset: {fileID: 0}
  m_GameObject: {fileID: 6329282690147596262}
  m_Enabled: 1
  m_EditorHideFlags: 0
  m_Script: {fileID: 11500000, guid: 8fbe085220bf9694abbb959d5fc2d6eb, type: 3}
  m_Name: 
  m_EditorClassIdentifier: 
  name: Grid Mask
  category: grid
  fileName: GridMask
  fileType: texture
  tags: []
  isFavorite: 0
  self: {fileID: 6329282690147596262}
  texture: {fileID: 2800000, guid: c725676496f30db49b2576377126b788, type: 3}
