%YAML 1.1
%TAG !u! tag:unity3d.com,2011:
--- !u!1 &625785068199867257
GameObject:
  m_ObjectHideFlags: 0
  m_CorrespondingSourceObject: {fileID: 0}
  m_PrefabInstance: {fileID: 0}
  m_PrefabAsset: {fileID: 0}
  serializedVersion: 6
  m_Component:
  - component: {fileID: 610728838962869345}
  - component: {fileID: 6721678826930193324}
  m_Layer: 0
  m_Name: SimpleBrush
  m_TagString: Untagged
  m_Icon: {fileID: 0}
  m_NavMeshLayer: 0
  m_StaticEditorFlags: 0
  m_IsActive: 1
--- !u!4 &610728838962869345
Transform:
  m_ObjectHideFlags: 0
  m_CorrespondingSourceObject: {fileID: 0}
  m_PrefabInstance: {fileID: 0}
  m_PrefabAsset: {fileID: 0}
  m_GameObject: {fileID: 625785068199867257}
  m_LocalRotation: {x: 0, y: 0, z: 0, w: 1}
  m_LocalPosition: {x: 37.30981, y: 2.127236, z: 71.72228}
  m_LocalScale: {x: 1, y: 1, z: 1}
  m_Children: []
  m_Father: {fileID: 0}
  m_RootOrder: 0
  m_LocalEulerAnglesHint: {x: 0, y: 0, z: 0}
--- !u!114 &6721678826930193324
MonoBehaviour:
  m_ObjectHideFlags: 0
  m_CorrespondingSourceObject: {fileID: 0}
  m_PrefabInstance: {fileID: 0}
  m_PrefabAsset: {fileID: 0}
  m_GameObject: {fileID: 625785068199867257}
  m_Enabled: 1
  m_EditorHideFlags: 0
  m_Script: {fileID: 11500000, guid: 8fbe085220bf9694abbb959d5fc2d6eb, type: 3}
  m_Name: 
  m_EditorClassIdentifier: 
  name: Simple Brush
  category: Brush
  fileName: SimpleBrush
  fileType: texture
  tags: []
  isFavorite: 0
  self: {fileID: 625785068199867257}
  texture: {fileID: 2800000, guid: 8d82539549bb543488d1620fd857432d, type: 3}
